**********************
Deck
**********************
-cards: list or Cards
**********************
Deck()
shuffle()
draw(): Card
**********************


**********************
Card
**********************
-id: int
**********************
Card(id: int)
getRank(): string
getSuit(): string
getCardId(): int
getCardValue(): int
__repr__(): string
**********************